^C:\USERS\WENQI\DESKTOP\PROJECTS\NAMEDPIPESERVER\NAMEDPIPESERVER\SRC\MAIN_SERVER.CPP
C:\USERS\WENQI\DESKTOP\PROJECTS\NAMEDPIPESERVER\NAMEDPIPESERVER\RELEASE\VC142.PDB
C:\USERS\WENQI\DESKTOP\PROJECTS\NAMEDPIPESERVER\NAMEDPIPESERVER\RELEASE\MAIN_SERVER.OBJ
