^C:\USERS\WENQI\DESKTOP\PROJECTS\NAMEDPIPESERVER\NAMEDPIPECLIENT\SRC\MAIN.CPP
C:\USERS\WENQI\DESKTOP\PROJECTS\NAMEDPIPESERVER\NAMEDPIPECLIENT\DEBUG\VC142.PDB
C:\USERS\WENQI\DESKTOP\PROJECTS\NAMEDPIPESERVER\NAMEDPIPECLIENT\DEBUG\VC142.IDB
C:\USERS\WENQI\DESKTOP\PROJECTS\NAMEDPIPESERVER\NAMEDPIPECLIENT\DEBUG\MAIN.OBJ
